[
  { "_jitemType"      : "Book"
  , "_jitemName"      : "The Golemic Mystery , Volume 1, By Jarzeno Jarzenoer"
  , "_jitemProps"     : []
  , "_jitemDescr"     : "This is a very good book. You should read it until the end. It would do you good. Do it, come on. Here's how it goes. Once, Taus was very bored. So he decided to animate one of his creations , a doll made of prime earth with his breath. By writing on the doll, as if writing a spell, he realized he could control how the doll could act, to an extent. That's how the first Golem was born."
  }
]
