0,0,1,3,3,3,3,3,3,3,3,3,3,3,3,3,3,1,0,0
0,15,15,15,15,15,15,15,15,15,15,15,15,15,15,15,15,15,15,0
1,15,15,15,15,15,15,15,15,15,15,15,15,15,15,15,15,15,15,1
7,15,15,15,15,15,15,15,15,15,15,15,15,15,15,15,15,15,15,7
7,15,15,15,15,15,15,15,15,15,15,15,15,15,15,15,15,15,15,7
7,15,15,15,15,15,15,15,15,15,15,15,15,15,15,15,15,15,15,7
7,15,15,15,15,15,15,15,15,15,15,15,15,15,15,15,15,15,15,7
7,15,15,15,15,15,15,15,15,15,15,15,15,15,15,15,15,15,15,7
7,15,15,15,15,15,15,15,15,15,15,15,15,15,15,15,15,15,15,7
7,15,15,15,15,15,15,15,15,15,15,15,15,15,15,15,15,15,15,7
0,15,15,15,15,15,15,15,15,15,15,15,15,15,15,15,15,15,15,0
7,15,15,15,15,15,15,15,15,15,15,15,15,15,15,15,15,15,15,7
7,15,15,15,15,15,15,15,15,15,15,15,15,15,15,15,15,15,15,7
7,15,15,15,15,15,15,15,15,15,15,15,15,15,15,15,15,15,15,7
7,15,15,15,15,15,15,15,15,15,15,15,15,15,15,15,15,15,15,7
7,15,15,15,15,15,15,15,15,15,15,15,15,15,15,15,15,15,15,7
7,15,15,15,15,15,15,15,15,15,15,15,15,15,15,15,15,15,15,7
1,15,15,15,15,15,15,15,15,15,15,15,15,15,15,15,15,15,15,1
0,15,15,15,15,15,15,15,15,15,15,15,15,15,15,15,15,15,15,0
0,0,1,3,3,3,3,3,3,3,3,3,3,3,3,3,3,1,0,0
